{
  "languageserver": {
   "clangd": {
	"command": "clangd",
	"rootPatterns": ["compile_flags.txt", "compile_commands.json"],
	"filetypes": ["c", "cc", "cpp", "c++", "objc", "objcpp"]
  },
    "haskell": {
    "command": "haskell-language-server-wrapper",
    "args": ["--lsp"],
    "rootPatterns": ["*.cabal", "stack.yaml", "cabal.project", "package.yaml", "hie.yaml"],
    "filetypes": ["haskell", "lhaskell"]
  },
    "ccls": {
        "command": "ccls",
        "filetypes": ["c", "cc", "cpp", "c++", "objc", "objcpp"],
        "rootPatterns": [".ccls", "compile_commands.json", ".git/", ".hg/"],
        "initializationOptions": {
            "cache": {
              "directory": "/tmp/ccls"
            }
          }
      },
    "dockerfile": {
      "command": "docker-langserver",
      "filetypes": ["dockerfile"],
      "args": ["--stdio"]
    },
    "sql": {
      "command": "sql-language-server",
      "args" : ["up", "--method", "stdio"],
      "filetypes": ["sql", "mysql"]
      }
  }
}
